ApplicationMgr       INFO Application Manager Configured successfully
HLTControlFlowMgr                      INFO Start initialization
HLTControlFlowMgr                      INFO Will not use an EventSelector.
InteractionRegion                     DEBUG InteractionRegion::addConditionDerivation : Key=IR
InteractionRegion                     DEBUG input handles: 1
InteractionRegion                     DEBUG output handles: 0
  + INPUT  '/Event/IOVLock'
HLTControlFlowMgr                      INFO Concurrency level information:
HLTControlFlowMgr                      INFO  o Number of events slots: 1
HLTControlFlowMgr                      INFO  o TBB thread pool size:  'ThreadPoolSize':1
ApplicationMgr                         INFO Application Manager Initialized successfully
ApplicationMgr                         INFO Application Manager Started successfully
HLTControlFlowMgr                      INFO Will measure time between events 0 and 0 (stop might be some events later)
HLTControlFlowMgr                      INFO Starting loop on events
InteractionRegion                     DEBUG DD4HEP: Using beamSpot from DeVP to set position of InteractionRegion.
InteractionRegion                      INFO interaction region: (0,0,0)
InteractionRegion                      INFO [            0           0           0
InteractionRegion                      INFO              0           0           0
InteractionRegion                      INFO              0           0           0 ]
ApplicationMgr                         INFO Application Manager Stopped successfully
HLTControlFlowMgr                      INFO
HLTControlFlowMgr                      INFO StateTree: CFNode   #executed  #passed
NONLAZY_AND: test_node                       #=1       Sum=1           Eff=|( 100.0000 +- 0.00000 )%|
 InteractionRegionExample/InteractionRegion  #=1       Sum=1           Eff=|( 100.0000 +- 0.00000 )%|
HLTControlFlowMgr                      INFO Histograms converted successfully according to request.
ApplicationMgr                         INFO Application Manager Finalized successfully
ApplicationMgr                         INFO Application Manager Terminated successfully
HLTControlFlowMgr                      INFO Number of counters : 1
 |    Counter                                      |     #     |    sum     | mean/eff^* | rms/err^*  |     min     |     max     |
 | "Processed events"                              |         1 |
