index aec1203..719c450 100644
@@ -1,13 +1,13 @@
 "ActivateHistory": false
 "AlgTypeAliases": {}
-"AppName": "Brunel"
-"AppVersion": "v60r5"
+"AppName": "Moore"
+"AppVersion": "v50r0"
 "CreateSvc": []
 "Dlls": []
 "Environment": {}
 "EventLoop": "HLTControlFlowMgr/HLTControlFlowMgr"
-"EvtMax": 2000000
-"EvtSel": ""
+"EvtMax": 1000
+"EvtSel": "EventSelector"
 "Exit": 0
 "ExtSvc": [
     "DetDataSvc/DetectorDataSvc",
@@ -49,29 +49,4 @@
     "HistogramPersistencySvc/HistogramPersistencySvc"
 ]
 "SvcOptMapping": []
-"TopAlg": [
-    "Gaudi::Hive::FetchDataFromFile/FetchDataFromFile",
-    "LHCb::Tests::FakeEventTimeProducer/DummyEventTime",
-    "LHCb::DetDesc::ReserveDetDescForEvent/ReserveIOV",
-    "createODIN/createODIN",
-    "PrGECFilter/PrGECFilter",
-    "PrPixelTracking/PrPixelTracking",
-    "VSPClus/VSPClustering",
-    "TracksVPMergerConverter_Clusters/ConverterVP",
-    "PatPV3DFuture/PatPV3D",
-    "LoKi::VoidFilter/FilterOnNoPVs",
-    "PrStoreUTHit/PrStoreUTHit",
-    "PrVeloUT/PrVeloUTFast",
-    "TracksUTConverter/TracksUTConverter",
-    "MuonRawToHits/MuonRawToHits",
-    "FTRawBankDecoder/createFTClusters",
-    "PrStoreFTHit/PrStoreFTHit",
-    "PrForwardTracking/PrForwardTrackingFast",
-    "TracksFTConverter/TracksFTConverter",
-    "MakeZipContainer__Track_v2/MakeZipContainer__Track_v2",
-    "MuonIDHlt1Alg/MuonIDHlt1Alg",
-    "MakeView__Track_v2__MuonID/MakeView__Track_v2__MuonID",
-    "SOAFilter__TrackWithMuonIDView/SOAFilter__TrackWithMuonIDView",
-    "ParameterizedKalmanFit/ForwardFitterAlgParamFast",
-    "MakeSelection__Track_v1/fitConverter"
-]
+"TopAlg": []

