{'ApplicationMgr': {'EventLoop': 'HLTControlFlowMgr/HLTControlFlowMgr',
                    'EvtMax': 100,
                    'EvtSel': 'NONE',
                    'ExtSvc': ['HiveWhiteBoard/EventDataSvc',
                               'Gaudi::MultiFileCatalog/FileCatalog',
                               'Gaudi::IODataManager/IODataManager',
                               'Gaudi::Monitoring::MessageSvcSink/Gaudi::Monitoring::MessageSvcSink',
                               'HistogramPersistencySvc/HistogramPersistencySvc'],
                    'HistogramPersistency': 'ROOT'},
 'EventDataSvc': {'DataLoader': 'EvtPersistencySvc/EventPersistencySvc',
                  'EnableFaultHandler': True,
                  'EventSlots': 1,
                  'ForceLeaves': True,
                  'RootCLID': 1},
 'EventPersistencySvc': {'CnvServices': ['Gaudi::RootCnvSvc/RootCnvSvc'],
                         'OutputLevel': 4},
 'FileCatalog': {'Catalogs': ['xmlcatalog_file:scheduler.xml']},
 'HLTControlFlowMgr': {'AllocationTrackerService': 'TimingAllocationTracker',
                       'CompositeCFNodes': [('top',
                                             'LAZY_AND',
                                             ['WriteHandleAlg/Producer',
                                              'OutputStream/OutputStream',
                                              'HistoAlgorithm/HistoAlgorithm'],
                                             True)],
                       'IncidentSvc': 'IncidentSvc',
                       'ThreadPoolSize': 1},
 'HistogramPersistencySvc': {'OutputFile': 'write.legacy_histos.root'},
 'HiveDataBrokerSvc': {'DataProducers': ['WriteHandleAlg/Producer',
                                         'OutputStream/OutputStream',
                                         'HistoAlgorithm/HistoAlgorithm']},
 'OutputStream': {'ItemList': ['/Event/MyCollision#1'],
                  'Output': "DATAFILE='PFN:data.dst'  SVC='Gaudi::RootCnvSvc' OPT='RECREATE'",
                  'OutputLevel': 4},
 'Producer': {'OutputLevel': 4, 'UseHandle': True}}
ApplicationMgr    SUCCESS
====================================================================================================================================
====================================================================================================================================
ApplicationMgr       INFO Application Manager Configured successfully
HistogramPersis...   INFO Added successfully Conversion service:RootHistSvc
HLTControlFlowMgr    INFO Start initialization
HLTControlFlowMgr    INFO Will not use an EventSelector.
HistoAlgorithm      ERROR Histogram h1 not found
HistoAlgorithm       INFO Booking Histograms
HistoAlgorithm       INFO Finished booking Histograms
HiveDataBrokerSvc WARNING non-reentrant algorithm: HistoAlgorithm
HiveDataBrokerSvc WARNING non-reentrant algorithm: OutputStream
HiveDataBrokerSvc WARNING non-reentrant algorithm: WriteHandleAlg/Producer
HLTControlFlowMgr    INFO Concurrency level information:
HLTControlFlowMgr    INFO  o Number of events slots: n
HLTControlFlowMgr    INFO  o TBB thread pool size:  'ThreadPoolSize':n
ApplicationMgr       INFO Application Manager Initialized successfully
ApplicationMgr       INFO Application Manager Started successfully
HLTControlFlowMgr    INFO Will measure time between events n and n (stop might be some events later)
HLTControlFlowMgr    INFO Starting loop on events
ApplicationMgr       INFO Application Manager Stopped successfully
HLTControlFlowMgr    INFO
HLTControlFlowMgr    INFO StateTree: CFNode   #executed  #passed
LAZY_AND: top                   #=100     Sum=100         Eff=|( 100.0000 +- 0.00000 )%|
 WriteHandleAlg/Producer        #=100     Sum=100         Eff=|( 100.0000 +- 0.00000 )%|
 OutputStream/OutputStream      #=100     Sum=100         Eff=|( 100.0000 +- 0.00000 )%|
 HistoAlgorithm/HistoAlgorithm  #=100     Sum=100         Eff=|( 100.0000 +- 0.00000 )%|
HLTControlFlowMgr    INFO Histograms converted successfully according to request.
ApplicationMgr       INFO Application Manager Finalized successfully
ApplicationMgr       INFO Application Manager Terminated successfully
Attaching file data.dst as _file0...
(TFile *) 0x########
 ******************************************************************************
 *Tree    :Event     : Root data for Gaudi                                    *
 *Entries :      100 : Total =           13867 bytes  File  Size =       2195 *
 *        :          : Tree compression factor =   7.32                       *
 ******************************************************************************
 *Br    0 :_Event.   : DataObject                                             *
 *Entries :      100 : Total  Size=       1080 bytes  File Size  =        272 *
 *Baskets :        1 : Basket Size=       2048 bytes  Compression=   2.14     *
 *............................................................................*
 *Br    1 :_Event_MyCollision. : Gaudi::Examples::Collision                   *
 *Entries :      100 : Total  Size=       2540 bytes  File Size  =        440 *
 *Baskets :        1 : Basket Size=      15000 bytes  Compression=   4.53     *
 *............................................................................*
 *Br    2 :_Event_R. : Gaudi::RootObjectRefs                                  *
 *Entries :      100 : Total  Size=       5990 bytes  File Size  =        466 *
 *Baskets :        1 : Basket Size=      50000 bytes  Compression=  11.77     *
 *............................................................................*
 *Br    3 :_Event_MyCollision_R. : Gaudi::RootObjectRefs                      *
 *Entries :      100 : Total  Size=       3650 bytes  File Size  =        346 *
 *Baskets :        1 : Basket Size=      26000 bytes  Compression=   8.95     *
 *............................................................................*
Attaching file write.legacy_histos.root as _file0...
(TFile *) 0x########
TFile**		write.legacy_histos.root	GAUDI Histograms
 TFile*		write.legacy_histos.root	GAUDI Histograms
  KEY: TH1D	1;1	1D fix binning
  KEY: TDirectoryFile	Var;1	Var
  KEY: TH2D	2;1	2D fix binning
  KEY: TH3D	3;1	3D fix binning
  KEY: TDirectoryFile	Prof;1	Prof
HLTControlFlowMgr    INFO Number of counters : 1
 |    Counter                                      |     #     |    sum     | mean/eff^* | rms/err^*  |     min     |     max     |
 | "Processed events"                              |       100 |
