ApplicationMgr    SUCCESS
====================================================================================================================================
====================================================================================================================================
ApplicationMgr       INFO Application Manager Configured successfully
HLTControlFlowMgr    INFO Start initialization
HLTControlFlowMgr    INFO Will not use an EventSelector.
HLTControlFlowMgr    INFO Concurrency level information:
HLTControlFlowMgr    INFO  o Number of events slots: n
HLTControlFlowMgr    INFO  o TBB thread pool size:  'ThreadPoolSize':n
ApplicationMgr       INFO Application Manager Initialized successfully
ApplicationMgr       INFO Application Manager Started successfully
HLTControlFlowMgr    INFO Will measure time between events n and n (stop might be some events later)
HLTControlFlowMgr    INFO Starting loop on events
MDFIOMixer           INFO Took event from file 0
CountBanks           INFO evt got 621 banks
MDFIOMixer           INFO Took event from file 1
MDFIOMixer           INFO Over with input from mdfIOMixerInput_1mmaptm.mdf
CountBanks           INFO evt got 621 banks
MDFIOMixer           INFO Took event from file 2
MDFIOMixer           INFO Over with input from mdfIOMixerInput_2mmaptm.mdf
CountBanks           INFO evt got 621 banks
MDFIOMixer           INFO Took event from file 3
MDFIOMixer           INFO Over with input from mdfIOMixerInput_3mmaptm.mdf
CountBanks           INFO evt got 621 banks
MDFIOMixer           INFO Took event from file 1
CountBanks           INFO evt got 621 banks
MDFIOMixer           INFO Took event from file 2
CountBanks           INFO evt got 621 banks
MDFIOMixer           INFO Took event from file 3
CountBanks           INFO evt got 621 banks
MDFIOMixer           INFO Took event from file 3
CountBanks           INFO evt got 621 banks
MDFIOMixer           INFO Took event from file 3
CountBanks           INFO evt got 621 banks
MDFIOMixer           INFO Took event from file 3
CountBanks           INFO evt got 621 banks
MDFIOMixer           INFO Took event from file 1
CountBanks           INFO evt got 621 banks
MDFIOMixer           INFO Took event from file 0
CountBanks           INFO evt got 621 banks
MDFIOMixer           INFO Took event from file 1
CountBanks           INFO evt got 621 banks
MDFIOMixer           INFO Took event from file 0
CountBanks           INFO evt got 621 banks
MDFIOMixer           INFO Took event from file 3
CountBanks           INFO evt got 621 banks
MDFIOMixer           INFO Took event from file 3
CountBanks           INFO evt got 621 banks
MDFIOMixer           INFO Took event from file 3
HLTControlFlowMgr   ERROR End of input reached earlier than expected. Event 16 could not be found while 18 events were expected.
MDFIOMixer           INFO Took event from file 0
CountBanks           INFO evt got 621 banks
ApplicationMgr       INFO Application Manager Stopped successfully
HLTControlFlowMgr    INFO
HLTControlFlowMgr    INFO StateTree: CFNode   #executed  #passed
LAZY_AND: testIOAlg  #=17      Sum=17          Eff=|( 100.0000 +- 0.00000 )%|
 MDFIOMixer          #=17      Sum=17          Eff=|( 100.0000 +- 0.00000 )%|
 CountBanks          #=17      Sum=17          Eff=|( 100.0000 +- 0.00000 )%|
HLTControlFlowMgr    INFO Histograms converted successfully according to request.
ApplicationMgr       INFO Application Manager Finalized successfully
ApplicationMgr       INFO Application Manager Terminated successfully
