ApplicationMgr    SUCCESS
====================================================================================================================================
====================================================================================================================================
ApplicationMgr       INFO Application Manager Configured successfully
EventPersistenc...   INFO Added successfully Conversion service:RootCnvSvc
ApplicationMgr       INFO Application Manager Initialized successfully
ApplicationMgr       INFO Application Manager Started successfully
EventSelector     SUCCESS Reading Event record 1. Record number within stream 1: 1
EventPersistenc...   INFO Added successfully Conversion service:LHCb::RawDataCnvSvc
DumpTracks           INFO There are 326 tracks in /Event/Rec/Track/Best
DumpTracks           INFO There are 322 tracks in /Event/Rec/Track/Best
DumpTracks           INFO There are 646 tracks in /Event/Rec/Track/Best
DumpTracks           INFO There are 163 tracks in /Event/Rec/Track/Best
DumpTracks           INFO There are 480 tracks in /Event/Rec/Track/Best
DumpTracks           INFO There are 142 tracks in /Event/Rec/Track/Best
DumpTracks           INFO There are 52 tracks in /Event/Rec/Track/Best
DumpTracks           INFO There are 418 tracks in /Event/Rec/Track/Best
DumpTracks           INFO There are 315 tracks in /Event/Rec/Track/Best
UnpackTrack       WARNING ** ID index wrapped, first/last Id = 65526 0
DumpTracks           INFO There are 5161 tracks in /Event/Rec/Track/Best
EventLoopMgr         INFO No more events in event selection
ApplicationMgr       INFO Application Manager Stopped successfully
EventLoopMgr         INFO Histograms converted successfully according to request.
ApplicationMgr       INFO Application Manager Finalized successfully
ApplicationMgr       INFO Application Manager Terminated successfully
DumpTracks           INFO Number of counters : 1
 |    Counter                                      |     #     |    sum     | mean/eff^* | rms/err^*  |     min     |     max     |
 | "#Tracks"                                       |        10 |       8025 |     802.50 |     1462.1 |      52.000 |      5161.0 |
UnpackTrack          INFO Number of counters : 1
 |    Counter                                      |     #     |    sum     | mean/eff^* | rms/err^*  |     min     |     max     |
 | "# UnPackedData"                                |        10 |       8025 |     802.50 |     1462.1 |      52.000 |      5161.0 |
